# 3ds Max Wavefront OBJ Exporter v0.97b - (c)2007 guruware
# File Created: 02.01.2020 10:40:46

newmtl st_02___Default
	Ns 10.0000000000
	Ni 1.5000000000
	d 1.0000000000
	Tr 0.0000000000
	Tf 1.0000000000 1.0000000000 1.0000000000 
	illum 2
	Ka 0.5879999995 0.5879999995 0.5879999995
	Kd 0.5879999995 0.5879999995 0.5879999995
	Ks 0.0000000000 0.0000000000 0.0000000000
	Ke 0.0000000000 0.0000000000 0.0000000000
